{
	"index": {
		"title": "NuGet-Pack-All PowerShell Script",
		"description": "I've been creating NuGet packages for a while at work through our continues integration server. But I needed a way to quickly build and create NuGet packages locally. So, I've written a Power Shell script that will look for any and all NuSpec files recursively from current location, and then build and pack them into NuGet packages.",
		"date": "2014-06-23"
	}
}